…
# Tidy the tibble
resultstb <- resultstb %>% gather(`k2`, `k5`, `k7`, `k9`, `k11`, `k13`, `k15`, `k17`, `k19`, `k21`, `k25`, `k30`, `k40`, `k50`, key = "k", value = "accuracy")
resultstb

## # A tibble: 168 x 3
##        n     k  accuracy
##    <chr> <chr>     <dbl>
##  1    n5    k2 0.7142857
##  2   n10    k2 0.7738095
##  3   n20    k2 0.7857143
##  4   n30    k2 0.8571429
##  5   n40    k2 0.8452381
##  6   n50    k2 0.8095238
##  7   n75    k2 0.8452381
##  8  n100    k2 0.8809524
##  9  n125    k2 0.8690476
## 10  n150    k2 0.8333333
## # ... with 158 more rows
…
